…
- Make a three-panel plot that shows the 24-hour activity time courses
  for each education level and use color to indicate sex.
- Describe in words any patterns or conclusions you can make based on
  this graph;
- including smooth trends may help identify differences.

``` r
# Plot these total activities (y-axis) against age (x-axis); 

mims %>%
  group_by(seqn, sex, age, education, min)
```

    ## # A tibble: 328,320 × 7
    ## # Groups:   seqn, sex, age, education, min [328,320]
    ##     seqn sex     age   bmi education              min    mims
    ##    <dbl> <fct> <dbl> <dbl> <fct>                  <chr> <dbl>
    ##  1 62161 male     22  23.3 High school equivalent 1     1.11 
    ##  2 62161 male     22  23.3 High school equivalent 2     3.12 
    ##  3 62161 male     22  23.3 High school equivalent 3     1.47 
    ##  4 62161 male     22  23.3 High school equivalent 4     0.938
    ##  5 62161 male     22  23.3 High school equivalent 5     1.60 
    ##  6 62161 male     22  23.3 High school equivalent 6     0.145
    ##  7 62161 male     22  23.3 High school equivalent 7     2.10 
    ##  8 62161 male     22  23.3 High school equivalent 8     0.509
    ##  9 62161 male     22  23.3 High school equivalent 9     1.63 
    ## 10 62161 male     22  23.3 High school equivalent 10    1.20 
    ## # ℹ 328,310 more rows
…
